…
    ## `summarise()` has grouped output by 'CHR', 'BP'. You can override using the
    ## `.groups` argument.

``` r
data.wide <- pivot_wider(distinct(data.long), names_from = method, values_from = P)
```

``` r
data.long %>% filter(P < 1e-5)
```

    ## # A tibble: 29 × 4
    ## # Groups:   CHR, BP [14]
    ##      CHR       BP method            P
    ##    <int>    <int> <chr>         <dbl>
    ##  1     1  1157973 SUPER.V3   9.05e- 6
    ##  2     1 39613580 BLINK.V3   2.74e- 9
    ##  3     1 39613580 FarmCPU.V3 4.51e- 8
    ##  4     1 42721991 BLINK.V3   2.39e- 9
    ##  5     1 42721991 FarmCPU.V3 5.23e-10
    ##  6     1 42721991 SUPER.V3   4.80e- 6
    ##  7     1 70326408 BLINK.V3   6.25e- 9
    ##  8     2 69565451 FarmCPU.V3 3.65e- 7
    ##  9     2 69565451 SUPER.V3   8.34e- 6
    ## 10     3  6555509 FarmCPU.V3 1.76e- 9
    ## # ℹ 19 more rows
…
